[{"line":1,"elements":[{"line":3,"name":"","description":"","type":"background","keyword":"Background","steps":[{"name":"url 'https:\/\/reqres.in\/'","result":{"duration":3500701,"status":"passed"},"match":{"location":"karate","arguments":[]},"keyword":"*","line":4},{"name":"def ExpectedResult = read('..\/Data\/result.json')","result":{"duration":26726804,"status":"passed"},"match":{"location":"karate","arguments":[]},"keyword":"*","line":5}]},{"line":7,"name":"List all Users","description":"","id":"list-all-users","type":"scenario","keyword":"Scenario","steps":[{"name":"path 'api\/users?page=2'","result":{"duration":21396550,"status":"passed"},"match":{"location":"karate","arguments":[]},"keyword":"Given","line":8},{"name":"method get","result":{"duration":6140036505,"status":"passed"},"match":{"location":"karate","arguments":[]},"keyword":"When","line":9,"doc_string":{"content_type":"","value":"13:53:52.599 request:\n1 > GET https:\/\/reqres.in\/api\/users%3Fpage=2\n1 > Accept-Encoding: gzip,deflate\n1 > Connection: Keep-Alive\n1 > Host: reqres.in\n1 > User-Agent: Apache-HttpClient\/4.5.12 (Java\/1.8.0_242)\n\n13:53:58.416 response time in milliseconds: 5813.65\n1 < 200\n1 < Access-Control-Allow-Origin: *\n1 < Age: 773\n1 < CF-Cache-Status: HIT\n1 < CF-RAY: 58af63067afcf19e-ATL\n1 < Cache-Control: max-age=14400\n1 < Connection: keep-alive\n1 < Content-Type: application\/json; charset=utf-8\n1 < Date: Tue, 28 Apr 2020 08:24:25 GMT\n1 < Etag: W\/\"301-ijGNEim\/mAI7LpbQIXyQc2bjt+k\"\n1 < Expect-CT: max-age=604800, report-uri=\"https:\/\/report-uri.cloudflare.com\/cdn-cgi\/beacon\/expect-ct\"\n1 < Server: cloudflare\n1 < Set-Cookie: __cfduid=df9b038f137e28ea9d41a89888793f72e1588062265; expires=Thu, 28-May-20 08:24:25 GMT; path=\/; domain=.reqres.in; HttpOnly; SameSite=Lax; Secure\n1 < Transfer-Encoding: chunked\n1 < Vary: Accept-Encoding\n1 < Via: 1.1 vegur\n1 < X-Powered-By: Express\n1 < cf-request-id: 02617c380e0000f19e7e8dd200000001\n{\"page\":1,\"per_page\":6,\"total\":12,\"total_pages\":2,\"data\":[{\"id\":1,\"name\":\"cerulean\",\"year\":2000,\"color\":\"#98B2D1\",\"pantone_value\":\"15-4020\"},{\"id\":2,\"name\":\"fuchsia rose\",\"year\":2001,\"color\":\"#C74375\",\"pantone_value\":\"17-2031\"},{\"id\":3,\"name\":\"true red\",\"year\":2002,\"color\":\"#BF1932\",\"pantone_value\":\"19-1664\"},{\"id\":4,\"name\":\"aqua sky\",\"year\":2003,\"color\":\"#7BC4C4\",\"pantone_value\":\"14-4811\"},{\"id\":5,\"name\":\"tigerlily\",\"year\":2004,\"color\":\"#E2583E\",\"pantone_value\":\"17-1456\"},{\"id\":6,\"name\":\"blue turquoise\",\"year\":2005,\"color\":\"#53B0AE\",\"pantone_value\":\"15-5217\"}],\"ad\":{\"company\":\"StatusCode Weekly\",\"url\":\"http:\/\/statuscode.org\/\",\"text\":\"A weekly newsletter focusing on software development, infrastructure, the server, performance, and the stack end of things.\"}}","line":9}},{"name":"status 200","result":{"duration":33561,"status":"passed"},"match":{"location":"karate","arguments":[]},"keyword":"Then","line":10},{"name":"def data = response.data","result":{"duration":19178566,"status":"passed"},"match":{"location":"karate","arguments":[]},"keyword":"*","line":11},{"name":"print 'data ---->',data","result":{"duration":5283695,"status":"passed"},"match":{"location":"karate","arguments":[]},"keyword":"And","line":12,"doc_string":{"content_type":"","value":"13:53:58.444 [print] data ----> [\n  {\n    \"color\": \"#98B2D1\",\n    \"year\": 2000,\n    \"name\": \"cerulean\",\n    \"id\": 1,\n    \"pantone_value\": \"15-4020\"\n  },\n  {\n    \"color\": \"#C74375\",\n    \"year\": 2001,\n    \"name\": \"fuchsia rose\",\n    \"id\": 2,\n    \"pantone_value\": \"17-2031\"\n  },\n  {\n    \"color\": \"#BF1932\",\n    \"year\": 2002,\n    \"name\": \"true red\",\n    \"id\": 3,\n    \"pantone_value\": \"19-1664\"\n  },\n  {\n    \"color\": \"#7BC4C4\",\n    \"year\": 2003,\n    \"name\": \"aqua sky\",\n    \"id\": 4,\n    \"pantone_value\": \"14-4811\"\n  },\n  {\n    \"color\": \"#E2583E\",\n    \"year\": 2004,\n    \"name\": \"tigerlily\",\n    \"id\": 5,\n    \"pantone_value\": \"17-1456\"\n  },\n  {\n    \"color\": \"#53B0AE\",\n    \"year\": 2005,\n    \"name\": \"blue turquoise\",\n    \"id\": 6,\n    \"pantone_value\": \"15-5217\"\n  }\n]","line":12}},{"name":"def myFun =","result":{"duration":12461515,"status":"passed"},"match":{"location":"karate","arguments":[]},"keyword":"*","line":13,"doc_string":{"content_type":"","value":"function(arg) {\n    for(i =0; i<arg.length; i++){\n    \t\t\tif(arg[i].id == 6){\n    \t\t\t     return arg[i]\n    \t\t   }\n    }\t\t\t     \t\t\n              \t\t\t\n}","line":13}},{"name":"def result = call myFun data","result":{"duration":39927083,"status":"passed"},"match":{"location":"karate","arguments":[]},"keyword":"*","line":24},{"name":"print 'result is--->',result","result":{"duration":4476492,"status":"passed"},"match":{"location":"karate","arguments":[]},"keyword":"Then","line":25,"doc_string":{"content_type":"","value":"13:53:58.501 [print] result is---> {\n  \"color\": \"#53B0AE\",\n  \"year\": 2005,\n  \"name\": \"blue turquoise\",\n  \"id\": 6,\n  \"pantone_value\": \"15-5217\"\n}","line":25}}]}],"name":"APIFramework\/Demo\/TestCases\/functionLoopsAndConditions.feature","description":"checked get method using API","id":"checked-get-method-using-api","keyword":"Feature","uri":"APIFramework\/Demo\/TestCases\/functionLoopsAndConditions.feature"}]