[{"line":1,"elements":[{"line":2,"name":"","description":"","type":"background","keyword":"Background","steps":[{"name":"def myFeature = call read('userDetailsAuthentication.feature'){email: 'eve.holt@reqres.in', password: 'pistol'}","result":{"duration":2437749475,"status":"passed"},"match":{"location":"karate","arguments":[]},"keyword":"*","line":3},{"name":"APIFramework\/Demo\/TestCases\/userDetailsAuthentication.feature","result":{"duration":0,"status":"passed"},"match":{"location":"karate","arguments":[]},"keyword":"","line":3,"doc_string":{"content_type":"","value":"{\n  \"email\": \"eve.holt@reqres.in\",\n  \"password\": \"pistol\"\n}\n","line":3}},{"name":"url 'https:\/\/reqres.in\/api\/'","result":{"duration":13278552,"status":"passed"},"match":{"location":"karate","arguments":[]},"keyword":"> *","line":4,"doc_string":{"content_type":"","value":"17:15:33.515 skipping bootstrap configuration: could not find or read file: classpath:karate-config.js","line":4}},{"name":"def params =","result":{"duration":16331871,"status":"passed"},"match":{"location":"karate","arguments":[]},"keyword":"> *","line":6,"doc_string":{"content_type":"","value":"{\n\t'email': '#(email)',\n\t'password': '#(password)'\n}","line":6}},{"name":"path 'oauth2\/token'","result":{"duration":3750820,"status":"passed"},"match":{"location":"karate","arguments":[]},"keyword":"> Given","line":13},{"name":"form field grant_type = 'client_credentials'","result":{"duration":4121135,"status":"passed"},"match":{"location":"karate","arguments":[]},"keyword":"> And","line":14},{"name":"form fields params","result":{"duration":412585,"status":"passed"},"match":{"location":"karate","arguments":[]},"keyword":"> And","line":15},{"name":"method POST","result":{"duration":2282095973,"status":"passed"},"match":{"location":"karate","arguments":[]},"keyword":"> When","line":16,"doc_string":{"content_type":"","value":"17:15:34.155 request:\n1 > POST https:\/\/reqres.in\/api\/oauth2\/token\n1 > Accept-Encoding: gzip,deflate\n1 > Connection: Keep-Alive\n1 > Content-Length: 72\n1 > Content-Type: application\/x-www-form-urlencoded; charset=UTF-8\n1 > Host: reqres.in\n1 > User-Agent: Apache-HttpClient\/4.5.12 (Java\/1.8.0_242)\ngrant_type=client_credentials&email=eve.holt%40reqres.in&password=pistol\n\n17:15:35.940 response time in milliseconds: 1783.02\n1 < 201\n1 < Access-Control-Allow-Origin: *\n1 < CF-Cache-Status: DYNAMIC\n1 < CF-RAY: 5897d2344a9dec1d-ATL\n1 < Connection: keep-alive\n1 < Content-Length: 134\n1 < Content-Type: application\/json; charset=utf-8\n1 < Date: Sat, 25 Apr 2020 11:46:01 GMT\n1 < Etag: W\/\"86-WYlEcDpeFummF+ykOIpgAZzG8e8\"\n1 < Expect-CT: max-age=604800, report-uri=\"https:\/\/report-uri.cloudflare.com\/cdn-cgi\/beacon\/expect-ct\"\n1 < Server: cloudflare\n1 < Set-Cookie: __cfduid=d17545c59b9e3aed34b2d799a1c36af0b1587815161; expires=Mon, 25-May-20 11:46:01 GMT; path=\/; domain=.reqres.in; HttpOnly; SameSite=Lax; Secure\n1 < Via: 1.1 vegur\n1 < X-Powered-By: Express\n1 < cf-request-id: 0252c1b4ae0000ec1d630b4200000001\n{\"grant_type\":\"client_credentials\",\"email\":\"eve.holt@reqres.in\",\"password\":\"pistol\",\"id\":\"184\",\"createdAt\":\"2020-04-25T11:46:01.188Z\"}","line":16}},{"name":"status 201","result":{"duration":30984,"status":"passed"},"match":{"location":"karate","arguments":[]},"keyword":"> Then","line":17},{"name":"print 'response --->',response","result":{"duration":4632939,"status":"passed"},"match":{"location":"karate","arguments":[]},"keyword":"> Then","line":18,"doc_string":{"content_type":"","value":"17:15:35.948 [print] response ---> {\n  \"createdAt\": \"2020-04-25T11:46:01.188Z\",\n  \"password\": \"pistol\",\n  \"grant_type\": \"client_credentials\",\n  \"id\": \"184\",\n  \"email\": \"eve.holt@reqres.in\"\n}","line":18}},{"name":"def accessToken = response.token","result":{"duration":17583103,"status":"passed"},"match":{"location":"karate","arguments":[]},"keyword":"> *","line":20},{"name":"print accessToken","result":{"duration":376441,"status":"passed"},"match":{"location":"karate","arguments":[]},"keyword":"> Then","line":21,"doc_string":{"content_type":"","value":"17:15:35.967 [print]","line":21}},{"name":"def authToken = myFeature.accessToken","result":{"duration":7742273,"status":"passed"},"match":{"location":"karate","arguments":[]},"keyword":"*","line":4}]},{"line":6,"name":"Post Call","description":"","id":"post-call","type":"scenario","keyword":"Scenario","steps":[{"name":"url 'https:\/\/reqres.in\/api\/users?page=2'","result":{"duration":3998389,"status":"passed"},"match":{"location":"karate","arguments":[]},"keyword":"When","line":7},{"name":"header Authorization = authToken","result":{"duration":36894,"status":"passed"},"match":{"location":"karate","arguments":[]},"keyword":"And","line":8},{"name":"method GET","result":{"duration":1063178866,"status":"passed"},"match":{"location":"karate","arguments":[]},"keyword":"When","line":9,"doc_string":{"content_type":"","value":"17:15:35.983 request:\n1 > GET https:\/\/reqres.in\/api\/users?page=2\n1 > Accept-Encoding: gzip,deflate\n1 > Authorization: null\n1 > Connection: Keep-Alive\n1 > Host: reqres.in\n1 > User-Agent: Apache-HttpClient\/4.5.12 (Java\/1.8.0_242)\n\n17:15:37.043 response time in milliseconds: 1057.73\n1 < 200\n1 < Access-Control-Allow-Origin: *\n1 < Age: 2880\n1 < CF-Cache-Status: HIT\n1 < CF-RAY: 5897d23c599dba8e-ATL\n1 < Cache-Control: max-age=14400\n1 < Connection: keep-alive\n1 < Content-Type: application\/json; charset=utf-8\n1 < Date: Sat, 25 Apr 2020 11:46:02 GMT\n1 < Etag: W\/\"4dd-IPv5LdOOb6s5S9E3i59wBCJ1k\/0\"\n1 < Expect-CT: max-age=604800, report-uri=\"https:\/\/report-uri.cloudflare.com\/cdn-cgi\/beacon\/expect-ct\"\n1 < Server: cloudflare\n1 < Set-Cookie: __cfduid=dc394fa3dd21f7926d5cfa273ff421efe1587815162; expires=Mon, 25-May-20 11:46:02 GMT; path=\/; domain=.reqres.in; HttpOnly; SameSite=Lax; Secure\n1 < Transfer-Encoding: chunked\n1 < Vary: Accept-Encoding\n1 < Via: 1.1 vegur\n1 < X-Powered-By: Express\n1 < cf-request-id: 0252c1b9b90000ba8e0d96e200000001\n{\"page\":2,\"per_page\":6,\"total\":12,\"total_pages\":2,\"data\":[{\"id\":7,\"email\":\"michael.lawson@reqres.in\",\"first_name\":\"Michael\",\"last_name\":\"Lawson\",\"avatar\":\"https:\/\/s3.amazonaws.com\/uifaces\/faces\/twitter\/follettkyle\/128.jpg\"},{\"id\":8,\"email\":\"lindsay.ferguson@reqres.in\",\"first_name\":\"Lindsay\",\"last_name\":\"Ferguson\",\"avatar\":\"https:\/\/s3.amazonaws.com\/uifaces\/faces\/twitter\/araa3185\/128.jpg\"},{\"id\":9,\"email\":\"tobias.funke@reqres.in\",\"first_name\":\"Tobias\",\"last_name\":\"Funke\",\"avatar\":\"https:\/\/s3.amazonaws.com\/uifaces\/faces\/twitter\/vivekprvr\/128.jpg\"},{\"id\":10,\"email\":\"byron.fields@reqres.in\",\"first_name\":\"Byron\",\"last_name\":\"Fields\",\"avatar\":\"https:\/\/s3.amazonaws.com\/uifaces\/faces\/twitter\/russoedu\/128.jpg\"},{\"id\":11,\"email\":\"george.edwards@reqres.in\",\"first_name\":\"George\",\"last_name\":\"Edwards\",\"avatar\":\"https:\/\/s3.amazonaws.com\/uifaces\/faces\/twitter\/mrmoiree\/128.jpg\"},{\"id\":12,\"email\":\"rachel.howell@reqres.in\",\"first_name\":\"Rachel\",\"last_name\":\"Howell\",\"avatar\":\"https:\/\/s3.amazonaws.com\/uifaces\/faces\/twitter\/hebertialmeida\/128.jpg\"}],\"ad\":{\"company\":\"StatusCode Weekly\",\"url\":\"http:\/\/statuscode.org\/\",\"text\":\"A weekly newsletter focusing on software development, infrastructure, the server, performance, and the stack end of things.\"}}","line":9}},{"name":"status 200","result":{"duration":16350,"status":"passed"},"match":{"location":"karate","arguments":[]},"keyword":"Then","line":10}]}],"name":"APIFramework\/Demo\/TestCases\/userDetailsAuthentication2.feature","description":"call to token generation feature","id":"call-to-token-generation-feature","keyword":"Feature","uri":"APIFramework\/Demo\/TestCases\/userDetailsAuthentication2.feature"}]