[{"line":1,"elements":[{"line":2,"name":"","description":"","type":"background","keyword":"Background","steps":[{"name":"def ExpectedResult = read('..\/Data\/result1.json')","result":{"duration":7324446,"status":"passed"},"match":{"location":"karate","arguments":[]},"keyword":"*","line":4}]},{"line":6,"name":"List all Users","description":"","id":"list-all-users","type":"scenario","keyword":"Scenario","steps":[{"name":"url someUrlBase","result":{"duration":80622,"status":"passed"},"match":{"location":"karate","arguments":[]},"keyword":"Given","line":7},{"name":"path listAllUsersEndPoint","result":{"duration":87128,"status":"passed"},"match":{"location":"karate","arguments":[]},"keyword":"And","line":8},{"name":"method get","result":{"duration":2003542906,"status":"passed"},"match":{"location":"karate","arguments":[]},"keyword":"When","line":9,"doc_string":{"content_type":"","value":"14:08:34.541 request:\n1 > GET https:\/\/reqres.in\/api\/users%3Fpage=1\n1 > Accept-Encoding: gzip,deflate\n1 > Connection: Keep-Alive\n1 > Host: reqres.in\n1 > User-Agent: Apache-HttpClient\/4.5.12 (Java\/1.8.0_242)\n\n14:08:36.235 response time in milliseconds: 1684.19\n1 < 200\n1 < Access-Control-Allow-Origin: *\n1 < Age: 193\n1 < CF-Cache-Status: HIT\n1 < CF-RAY: 58af7874de59b9c8-ATL\n1 < Cache-Control: max-age=14400\n1 < Connection: keep-alive\n1 < Content-Type: application\/json; charset=utf-8\n1 < Date: Tue, 28 Apr 2020 08:39:03 GMT\n1 < Etag: W\/\"301-ijGNEim\/mAI7LpbQIXyQc2bjt+k\"\n1 < Expect-CT: max-age=604800, report-uri=\"https:\/\/report-uri.cloudflare.com\/cdn-cgi\/beacon\/expect-ct\"\n1 < Server: cloudflare\n1 < Set-Cookie: __cfduid=de458bad0a27b415ffe8e6a5a1c633e321588063143; expires=Thu, 28-May-20 08:39:03 GMT; path=\/; domain=.reqres.in; HttpOnly; SameSite=Lax; Secure\n1 < Transfer-Encoding: chunked\n1 < Vary: Accept-Encoding\n1 < Via: 1.1 vegur\n1 < X-Powered-By: Express\n1 < cf-request-id: 0261899d070000b9c8e3a61200000001\n{\"page\":1,\"per_page\":6,\"total\":12,\"total_pages\":2,\"data\":[{\"id\":1,\"name\":\"cerulean\",\"year\":2000,\"color\":\"#98B2D1\",\"pantone_value\":\"15-4020\"},{\"id\":2,\"name\":\"fuchsia rose\",\"year\":2001,\"color\":\"#C74375\",\"pantone_value\":\"17-2031\"},{\"id\":3,\"name\":\"true red\",\"year\":2002,\"color\":\"#BF1932\",\"pantone_value\":\"19-1664\"},{\"id\":4,\"name\":\"aqua sky\",\"year\":2003,\"color\":\"#7BC4C4\",\"pantone_value\":\"14-4811\"},{\"id\":5,\"name\":\"tigerlily\",\"year\":2004,\"color\":\"#E2583E\",\"pantone_value\":\"17-1456\"},{\"id\":6,\"name\":\"blue turquoise\",\"year\":2005,\"color\":\"#53B0AE\",\"pantone_value\":\"15-5217\"}],\"ad\":{\"company\":\"StatusCode Weekly\",\"url\":\"http:\/\/statuscode.org\/\",\"text\":\"A weekly newsletter focusing on software development, infrastructure, the server, performance, and the stack end of things.\"}}","line":9}},{"name":"status 200","result":{"duration":8376,"status":"passed"},"match":{"location":"karate","arguments":[]},"keyword":"Then","line":10},{"name":"print response","result":{"duration":982699,"status":"passed"},"match":{"location":"karate","arguments":[]},"keyword":"Then","line":11,"doc_string":{"content_type":"","value":"14:08:36.238 [print] {\n  \"per_page\": 6,\n  \"total\": 12,\n  \"ad\": {\n    \"company\": \"StatusCode Weekly\",\n    \"text\": \"A weekly newsletter focusing on software development, infrastructure, the server, performance, and the stack end of things.\",\n    \"url\": \"http:\/\/statuscode.org\/\"\n  },\n  \"data\": [\n    {\n      \"color\": \"#98B2D1\",\n      \"year\": 2000,\n      \"name\": \"cerulean\",\n      \"id\": 1,\n      \"pantone_value\": \"15-4020\"\n    },\n    {\n      \"color\": \"#C74375\",\n      \"year\": 2001,\n      \"name\": \"fuchsia rose\",\n      \"id\": 2,\n      \"pantone_value\": \"17-2031\"\n    },\n    {\n      \"color\": \"#BF1932\",\n      \"year\": 2002,\n      \"name\": \"true red\",\n      \"id\": 3,\n      \"pantone_value\": \"19-1664\"\n    },\n    {\n      \"color\": \"#7BC4C4\",\n      \"year\": 2003,\n      \"name\": \"aqua sky\",\n      \"id\": 4,\n      \"pantone_value\": \"14-4811\"\n    },\n    {\n      \"color\": \"#E2583E\",\n      \"year\": 2004,\n      \"name\": \"tigerlily\",\n      \"id\": 5,\n      \"pantone_value\": \"17-1456\"\n    },\n    {\n      \"color\": \"#53B0AE\",\n      \"year\": 2005,\n      \"name\": \"blue turquoise\",\n      \"id\": 6,\n      \"pantone_value\": \"15-5217\"\n    }\n  ],\n  \"page\": 1,\n  \"total_pages\": 2\n}","line":11}},{"name":"print ExpectedResult[0]","result":{"duration":40498345,"status":"passed"},"match":{"location":"karate","arguments":[]},"keyword":"Then","line":12,"doc_string":{"content_type":"","value":"14:08:36.279 [print] {\n  \"page\": 1,\n  \"per_page\": 6,\n  \"total\": 12,\n  \"total_pages\": 2,\n  \"data\": [\n    {\n      \"id\": 1,\n      \"name\": \"cerulean\",\n      \"year\": 2000,\n      \"color\": \"#98B2D1\",\n      \"pantone_value\": \"15-4020\"\n    },\n    {\n      \"id\": 2,\n      \"name\": \"fuchsia rose\",\n      \"year\": 2001,\n      \"color\": \"#C74375\",\n      \"pantone_value\": \"17-2031\"\n    },\n    {\n      \"id\": 3,\n      \"name\": \"true red\",\n      \"year\": 2002,\n      \"color\": \"#BF1932\",\n      \"pantone_value\": \"19-1664\"\n    },\n    {\n      \"id\": 4,\n      \"name\": \"aqua sky\",\n      \"year\": 2003,\n      \"color\": \"#7BC4C4\",\n      \"pantone_value\": \"14-4811\"\n    },\n    {\n      \"id\": 5,\n      \"name\": \"tigerlily\",\n      \"year\": 2004,\n      \"color\": \"#E2583E\",\n      \"pantone_value\": \"17-1456\"\n    },\n    {\n      \"id\": 6,\n      \"name\": \"blue turquoise\",\n      \"year\": 2005,\n      \"color\": \"#53B0AE\",\n      \"pantone_value\": \"15-5217\"\n    }\n  ],\n  \"ad\": {\n    \"company\": \"StatusCode Weekly\",\n    \"url\": \"http:\/\/statuscode.org\/\",\n    \"text\": \"A weekly newsletter focusing on software development, infrastructure, the server, performance, and the stack end of things.\"\n  }\n}","line":12}},{"name":"match response == ExpectedResult[0]","result":{"duration":1379504,"status":"passed"},"match":{"location":"karate","arguments":[]},"keyword":"And","line":13}]},{"line":2,"name":"","description":"","type":"background","keyword":"Background","steps":[{"name":"def ExpectedResult = read('..\/Data\/result1.json')","result":{"duration":8072275,"status":"passed"},"match":{"location":"karate","arguments":[]},"keyword":"*","line":4}]},{"line":15,"name":"Single User","description":"","id":"single-user","type":"scenario","keyword":"Scenario","steps":[{"name":"url someUrlBase","result":{"duration":81492,"status":"passed"},"match":{"location":"karate","arguments":[]},"keyword":"Given","line":16},{"name":"path singleUserEndPoint","result":{"duration":83893,"status":"passed"},"match":{"location":"karate","arguments":[]},"keyword":"And","line":17},{"name":"method get","result":{"duration":2003047784,"status":"passed"},"match":{"location":"karate","arguments":[]},"keyword":"When","line":18,"doc_string":{"content_type":"","value":"14:08:34.541 request:\n1 > GET https:\/\/reqres.in\/api\/users\/2\n1 > Accept-Encoding: gzip,deflate\n1 > Connection: Keep-Alive\n1 > Host: reqres.in\n1 > User-Agent: Apache-HttpClient\/4.5.12 (Java\/1.8.0_242)\n\n14:08:36.231 response time in milliseconds: 1684.19\n1 < 200\n1 < Access-Control-Allow-Origin: *\n1 < Age: 2628\n1 < CF-Cache-Status: HIT\n1 < CF-RAY: 58af7874ebc2ba3a-ATL\n1 < Cache-Control: max-age=14400\n1 < Connection: keep-alive\n1 < Content-Type: application\/json; charset=utf-8\n1 < Date: Tue, 28 Apr 2020 08:39:03 GMT\n1 < Etag: W\/\"173-1Z8bn0V7UjH6FK7NCaza1ccWXQk\"\n1 < Expect-CT: max-age=604800, report-uri=\"https:\/\/report-uri.cloudflare.com\/cdn-cgi\/beacon\/expect-ct\"\n1 < Server: cloudflare\n1 < Set-Cookie: __cfduid=d36d58404b4f18fd766fa3d1d4351f3c41588063143; expires=Thu, 28-May-20 08:39:03 GMT; path=\/; domain=.reqres.in; HttpOnly; SameSite=Lax; Secure\n1 < Transfer-Encoding: chunked\n1 < Vary: Accept-Encoding\n1 < Via: 1.1 vegur\n1 < X-Powered-By: Express\n1 < cf-request-id: 0261899d0d0000ba3a22896200000001\n{\"data\":{\"id\":2,\"email\":\"janet.weaver@reqres.in\",\"first_name\":\"Janet\",\"last_name\":\"Weaver\",\"avatar\":\"https:\/\/s3.amazonaws.com\/uifaces\/faces\/twitter\/josephstein\/128.jpg\"},\"ad\":{\"company\":\"StatusCode Weekly\",\"url\":\"http:\/\/statuscode.org\/\",\"text\":\"A weekly newsletter focusing on software development, infrastructure, the server, performance, and the stack end of things.\"}}","line":18}},{"name":"status 200","result":{"duration":33368,"status":"passed"},"match":{"location":"karate","arguments":[]},"keyword":"Then","line":19},{"name":"match response == ExpectedResult[1]","result":{"duration":41622003,"status":"passed"},"match":{"location":"karate","arguments":[]},"keyword":"And","line":20}]},{"line":2,"name":"","description":"","type":"background","keyword":"Background","steps":[{"name":"def ExpectedResult = read('..\/Data\/result1.json')","result":{"duration":8160938,"status":"passed"},"match":{"location":"karate","arguments":[]},"keyword":"*","line":4}]},{"line":22,"name":"Single User with Id 23 is not found","description":"","id":"single-user-with-id-23-is-not-found","type":"scenario","keyword":"Scenario","steps":[{"name":"url someUrlBase","result":{"duration":21978,"status":"passed"},"match":{"location":"karate","arguments":[]},"keyword":"Given","line":23},{"name":"path singleUserNotFoundEndPoint","result":{"duration":72127,"status":"passed"},"match":{"location":"karate","arguments":[]},"keyword":"And","line":24},{"name":"method get","result":{"duration":2196414305,"status":"passed"},"match":{"location":"karate","arguments":[]},"keyword":"When","line":25,"doc_string":{"content_type":"","value":"14:08:34.542 request:\n1 > GET https:\/\/reqres.in\/api\/users\/23\n1 > Accept-Encoding: gzip,deflate\n1 > Connection: Keep-Alive\n1 > Host: reqres.in\n1 > User-Agent: Apache-HttpClient\/4.5.12 (Java\/1.8.0_242)\n\n14:08:36.430 response time in milliseconds: 1887.09\n1 < 404\n1 < Access-Control-Allow-Origin: *\n1 < CF-Cache-Status: EXPIRED\n1 < CF-RAY: 58af7874d991f371-ATL\n1 < Cache-Control: max-age=14400\n1 < Connection: keep-alive\n1 < Content-Length: 2\n1 < Content-Type: application\/json; charset=utf-8\n1 < Date: Tue, 28 Apr 2020 08:39:03 GMT\n1 < Etag: W\/\"2-vyGp6PvFo4RvsFtPoIWeCReyIC8\"\n1 < Expect-CT: max-age=604800, report-uri=\"https:\/\/report-uri.cloudflare.com\/cdn-cgi\/beacon\/expect-ct\"\n1 < Server: cloudflare\n1 < Set-Cookie: __cfduid=ddcc7569e534c35dd41e21abeefb4a3ba1588063143; expires=Thu, 28-May-20 08:39:03 GMT; path=\/; domain=.reqres.in; HttpOnly; SameSite=Lax; Secure\n1 < Vary: Accept-Encoding\n1 < Via: 1.1 vegur\n1 < X-Powered-By: Express\n1 < cf-request-id: 0261899d050000f371bba96200000001\n{}","line":25}},{"name":"status 404","result":{"duration":15118,"status":"passed"},"match":{"location":"karate","arguments":[]},"keyword":"Then","line":26},{"name":"match response == ExpectedResult[2]","result":{"duration":6034465,"status":"passed"},"match":{"location":"karate","arguments":[]},"keyword":"And","line":27}]}],"name":"APIFramework\/Demo\/TestCases\/getCallMethod.feature","description":"checked get method using API","id":"checked-get-method-using-api","keyword":"Feature","uri":"APIFramework\/Demo\/TestCases\/getCallMethod.feature"}]